788337 471388
679197 563999
748546 376194
454527 613977
886463 478470
399405 362262
807929 661670
497401 101846
882463 651922
515470 236603
186515 852273
307179 587609
37667 326629
138900 700091
945584 682298
59641 747742
152692 274108
54732 319029
894102 86450
663843 84681
46906 905300
816783 878805
282681 188793
115972 278394
863498 901995
462312 156248
490 738398
609744 28349
23503 338830
46119 605910
183355 355286
553169 157904
601762 306897
264255 449905
20542 58073
715780 244414
968994 336828
36972 951038
700738 721153
880178 913340
577978 697376
524649 968764
436899 376436
479083 54094
375870 851150
790158 552168
504445 454464
76351 424192
579412 985286
563640 833622
546643 644126
399335 30755
955831 966704
317485 991491
256654 606013
993367 240841
231199 563903
83845 101473
305465 325189
517170 744937
68067 728510
250140 19872
836703 802167
196987 242251
278608 525542
233397 238152
991630 768648
507835 358545
14273 430865
32761 839321
860830 74714
216502 307594
46182 264169
282714 381815
817690 899616
64928 588905
241918 77711
769192 336788
850139 51784
162460 338414
498411 781758
451246 843836
621191 640842
664921 705921
805876 221572
927440 242591
86967 9518
338974 404197
377735 528721
457764 232550
121063 440800
585329 485215
354270 172262
97608 987895
857411 382934
1590 275256
987748 722653
622291 376946
40635 817473
548632 150498
536483 191018
904601 49199
532262 849544
376664 802429
394207 372681
766063 144935
311886 778910
736565 407889
888528 874045
825436 437907
600091 831559
232609 513527
987187 892470
969272 118662
276437 559126
911913 214063
96668 952775
490971 806444
765452 143301
502845 274974
599614 460607
998873 241353
235873 604823
105619 966108
109634 706750
279909 286706
415578 850305
340909 146873
756115 437924
114938 191011
858224 840736
891151 199324
814870 16629
76392 653
537924 85752
942798 625930
613176 30978
816374 242358
111347 459848
229790 990724
136072 864660
489118 673254
352931 65221
564203 549991
857966 805982
824058 545356
579379 820485
223900 55612
169591 469229
642480 866315
27657 208848
639951 598144
447155 80636
585063 45431
554005 489748
250923 377030
856322 789218
303061 65322
216401 79082
565967 363005
949915 572789
385272 112125
658386 840341
755577 141034
900996 495854
716587 193007
932742 635457
83999 64828
100554 275707
767929 418516
774035 834271
243514 700824
792192 258130
491730 731475
139129 462380
968701 663981
312712 898045
562640 698090
998299 460127
47133 628069
294596 83630
598997 160935
555404 731168
420118 395895
107803 464712
437254 579518
585356 953013
105055 695683
557677 660839
735034 843193
244666 106499
850928 939166
43960 631328
529547 268696
516975 112740
751005 480461
197843 229190
750218 903255
171218 212309
406700 796403
750656 384808
674226 272559
868714 585118
836076 590694
142110 897416
278270 593619
380058 878522
26258 53686
661312 418980
583013 447445
957990 594178
672563 951060
47107 995724
183816 633601
363938 815513
842783 531596
275837 182515
950096 816944
405374 807924
972263 978696
296943 860320
180612 381928
916049 117975
845147 467689
657988 940805
188443 720398
430216 78921
62745 191024
758973 12842
783722 224157
422959 720704
978406 284523
266558 551411
891113 202756
393205 209075
71313 57953
694313 392951
667983 453163
851152 236957
369102 284404
212030 232699
620506 682135
916349 565097
892166 937022
783535 296012
47221 628207
643590 87589
689373 470440
153555 242941
661543 486672
