905011 741411
965709 339151
887691 230036
40139 649349
850043 879114
529194 541778
24373 692750
380469 249874
46824 970191
868826 208067
308643 322577
121168 765200
146257 935570
695043 975159
45371 990288
740649 851681
263526 236242
863610 592974
950431 447229
864644 359507
981638 788163
646334 125485
131095 822602
207082 622619
605343 986512
398751 64095
197298 152649
641412 64923
666944 910672
616330 606483
207366 530570
969235 776155
373978 382599
350900 503625
139578 283960
532961 16700
247063 792169
836684 214881
179577 421859
181027 77610
429476 325705
7311 461982
770862 691631
523731 220683
885427 844818
680042 873424
815780 995642
859987 550361
616575 914326
929136 64624
514035 921200
589583 338084
845836 311627
394463 91407
496605 781966
874958 569489
427290 640119
668992 757887
235100 313506
237956 925195
33372 230762
564449 559640
797902 505293
827012 184459
54026 905068
770081 692432
100388 485836
604220 344270
881675 784705
108884 214945
897108 455352
270751 424864
961509 220387
175906 805696
638325 901934
907062 812415
979029 469559
716615 383288
834265 742361
684714 848891
704310 444463
389864 221317
419403 35715
441076 271326
117222 229490
106102 684192
613167 468471
215175 453893
392426 932710
142884 865605
210140 743898
243222 304929
586531 300717
208866 419678
757167 549061
908279 260791
424027 200522
724654 219168
80016 900008
861368 46362
234345 40730
330501 369264
128686 627983
897070 733569
982405 1999
192969 818714
829390 121514
406421 182772
841467 438255
98614 85459
345050 325629
658039 311984
161572 214213
237093 540861
731089 613665
503163 522743
274951 447660
371287 954002
765431 213812
925130 70442
985736 600300
635156 108039
968486 696078
480385 247312
573118 619713
973599 545161
944159 499838
497526 309044
869628 734736
56908 976068
615566 808097
353098 259599
469973 840767
408506 583719
334970 556553
221055 494612
874969 369147
854788 907948
572742 174313
55920 779912
196610 502893
256175 410211
492404 571304
935529 770175
559737 197078
993601 874580
918554 809518
769950 313723
510434 626340
431173 338610
871604 478424
97695 584681
237041 106689
185868 909256
788286 377936
311348 484095
669834 672582
312083 710411
849563 231507
103987 909904
140561 424975
804283 3899
247514 968220
643683 944249
247917 858966
197369 285845
280992 71629
62361 535254
202452 795154
546074 801294
843207 77144
46473 513600
166734 572986
387178 954827
618882 631709
350619 985850
987619 320749
515155 273190
92956 991966
651188 689894
192586 55804
780771 888036
696434 57044
169804 475111
830334 290284
592342 361178
308062 658843
860825 493807
439873 557655
848882 702412
636087 455669
830740 134712
160259 499131
857444 627585
193043 710159
436988 506215
54445 486266
334186 409092
893544 479842
901513 492979
700588 229173
567230 321572
551966 611593
76822 627457
666700 146358
124766 881429
149359 895448
498688 632065
733810 64513
871129 711930
602863 604575
285259 745688
236065 205219
453961 20908
589831 500921
607088 425276
805909 988352
579869 632758
136475 452250
867887 104252
973886 654496
432414 37690
829574 553173
161180 649848
171152 215257
917446 161056
726852 575842
189461 686013
392200 244541
205060 699860
563774 351334
727761 501280
359926 295917
959018 644244
455971 227719
881448 764487
984014 928412
859331 490044
896264 407165
688107 648994
632357 213309
720215 55509
