382394 719632
586786 40323
788601 709692
265968 788969
945879 992273
786209 926788
230726 34293
171767 426585
115149 985267
189671 536857
74403 719393
933217 59340
140724 935444
859892 603038
561229 101701
518794 424141
745437 170750
588665 394583
480870 997045
598696 320917
367696 881397
985819 98703
253940 916090
503140 958354
185533 293807
391264 491685
811897 168442
345079 405936
230712 580490
746100 683578
667276 908530
206388 656473
16688 94858
58588 878185
786096 994224
141334 164772
164635 28838
540281 984642
114294 386087
478814 747245
284407 517223
338401 471625
514257 227940
930411 23807
110983 939034
403963 473738
844389 972142
584327 375333
857539 738409
347224 597
736956 348741
820083 553905
17817 451885
850870 783243
688843 398914
531269 358414
614099 935224
375462 11322
535376 935706
692415 72180
306377 126251
595355 353094
954750 140832
626056 635074
373168 828892
608947 73018
956730 494061
753440 217759
937831 53145
717141 835769
435638 621269
643419 746030
250409 229026
399889 759869
218769 581605
3074 119535
620053 347796
813963 833280
10545 11521
802406 867011
904968 816231
959114 601220
788066 36424
965915 631307
150178 90417
828466 663550
805392 632764
836979 204559
876213 519775
458816 126948
215375 511843
569537 931107
365182 438770
236034 493382
753170 802444
508492 86778
25996 3864
65823 699286
536644 783101
835488 766659
284347 204638
117630 445271
704451 837727
951051 448469
974396 345740
260923 385555
489042 260741
917277 226753
888422 843100
75163 588164
78579 582711
439602 719682
364525 305271
94979 384301
822586 323304
768355 31995
999828 844906
901868 753372
985810 488740
889624 986185
317347 709174
461028 917384
446665 324110
807791 639245
652315 391319
819528 656298
931329 934371
421099 349234
821425 125302
264073 873321
731387 396851
58436 6689
666855 483898
368621 742954
94005 112390
993008 973472
925257 236819
668296 480680
141197 515220
172457 781989
73257 938500
77376 529345
724829 779617
312053 260615
333497 454956
986891 632699
132305 82130
563779 26234
693793 380720
303358 799620
601658 177996
633365 115919
349927 965238
731446 24564
436120 702163
745510 213385
595556 742323
922379 580822
296206 6042
235072 443810
741555 3685
93325 765319
345978 295479
810767 447520
598887 533954
587036 993334
768772 864522
967918 727872
953766 340530
433622 70899
760788 756750
742231 137579
669708 865781
643884 821116
285586 524142
81921 35513
152600 967826
272753 539935
538532 36243
789176 127777
133957 102954
255883 926748
729295 334861
267265 684971
833655 597680
846736 371356
594372 559794
533601 461916
588449 285736
69283 373908
947889 96175
658741 81481
10428 778101
713781 419166
38398 128497
571725 937354
835893 383122
398642 787760
745267 139313
128511 85203
731025 291442
578633 934369
599932 811005
331224 405801
335058 231005
400813 723991
947304 507309
65589 90479
576198 938877
305974 969592
293772 764330
14578 426754
17836 645250
425602 961045
846394 574775
31177 839661
508862 933578
683690 685168
960330 451927
646891 423284
340067 901508
200428 63828
143525 198595
191293 442407
672246 52097
289510 664810
218340 882289
15897 755424
841078 487479
984084 429057
121403 176579
455108 390973
872068 505582
718771 261792
468296 507868
192167 749307
606618 646723
899844 439584
176651 850974
661425 591556
272199 542594
225284 176440
277422 394192
550571 309088
270194 386365
