544316 456110
927359 474520
79837 580292
103207 871301
474842 211206
478955 300008
569385 233682
47593 86342
774193 773422
145210 302768
300343 383287
199922 920552
976097 82590
961375 530461
779044 848647
92931 27156
847166 621049
947927 471522
696892 540263
744188 125723
650899 596287
87801 181693
388124 8535
649806 422199
266333 803184
78692 439912
602694 806058
581683 26499
504647 476614
154424 85167
847421 102103
599011 406689
141985 213026
138477 270249
488534 961490
231899 124206
390756 153733
784289 792490
685071 201344
620620 340334
369678 696853
454675 718252
822527 81136
979582 241314
65735 897195
932688 411605
29455 207201
421357 292568
286571 580730
622594 848989
973700 685036
871450 386271
289269 200566
453248 300844
448187 613258
652350 169019
161799 376506
874514 82051
358114 751410
803812 998373
310286 648599
586575 859225
395653 68869
267220 155563
96399 548238
424378 767615
889202 458673
135112 329361
657375 23245
422102 711685
932465 112315
491948 908418
970089 891912
592387 899643
608684 912420
323588 232740
72664 340031
321216 477220
390012 80622
414476 544046
356122 687230
363267 206554
77213 320712
474754 349383
733968 252354
18326 510714
836805 107937
474103 151451
933713 741823
168738 841698
31219 549189
13773 189554
272954 321922
889450 732321
20546 554060
808929 847520
297153 599817
156899 944013
452568 262552
133268 507417
21525 901041
274110 998779
117839 444726
223124 89319
37654 83127
741154 597944
122514 145694
602524 986138
831486 991552
967328 709897
612807 919380
90396 986070
727744 149583
425941 869765
281211 924673
258562 554795
70116 582407
278793 881208
284571 192894
282476 107877
106040 136747
397266 590069
197674 684094
316 877616
135111 408988
813247 446147
392718 345863
37279 397476
796061 341277
28419 273863
258025 319122
51409 544620
657870 331443
212423 43559
673970 651826
492793 902997
369805 483006
679592 956726
821263 924706
766455 251086
24648 334837
837956 781366
769334 81163
749206 641836
695411 993984
42487 201916
662066 367606
882949 585341
208493 319358
904144 77585
605846 834081
496767 947700
24384 817333
661836 761034
731124 812784
589202 168694
112538 139430
585561 368401
895843 775471
609461 177949
936483 103014
422915 310070
542850 20159
415382 100720
267618 923806
665561 724960
106623 343723
926530 322303
775834 199148
471623 473018
90297 643020
915952 313492
126119 265166
640390 542269
840872 194469
300764 761105
820619 125394
581984 287497
401754 578574
211176 103900
533135 977442
145059 588428
139631 197602
941438 463603
286841 751306
470772 434998
637024 17615
911219 359761
718053 955256
987539 295510
905732 986068
580287 819445
406634 716166
995773 873000
10310 462452
161007 13751
520700 952648
643366 241226
159883 623683
449441 410478
989540 957619
384729 364065
129940 201562
84720 641839
537179 336728
399046 993779
59939 67101
557574 344095
121339 710408
85245 824186
378346 904148
550715 614848
156254 584776
994561 59437
549000 320854
280287 439137
677583 844959
78271 153512
852473 304463
454552 912977
426152 866449
226232 200437
876667 763032
883018 548843
932661 929031
847236 438903
587212 945666
