906376 656524
540438 815444
511558 582512
838226 407520
234832 710164
741119 734764
745369 621576
263645 994427
160629 171301
463760 695585
467770 923268
613166 745766
561387 55917
560490 517959
245256 281253
182896 798952
855832 333451
914673 630613
192504 709724
386108 679974
267020 262033
42437 251696
581081 745617
961720 731804
251946 649524
881829 571882
87654 193268
336965 250221
22078 620657
934010 763322
408468 258270
279298 371353
831581 218320
492020 675707
147612 980396
675399 683354
256580 999935
72409 309994
985546 157086
290523 95765
242745 625312
67225 384247
448512 235604
905657 866205
738140 849849
502264 40984
915498 494155
157646 754251
38353 713803
188346 538911
469610 754595
183826 897909
122218 577303
75550 212323
175798 785645
695552 452419
750534 849268
640208 395164
805359 667799
580263 260990
651028 582155
108924 11291
171040 874059
288876 849691
428700 489802
855670 988444
648532 52125
656657 465356
513913 342811
562616 646673
374001 268255
94462 451724
775555 534366
584355 215488
899871 823755
244344 271820
830945 916428
317606 547552
286240 152435
589934 59072
648656 111243
469636 180028
575298 106192
805830 525417
953373 417990
495984 599425
835013 544657
105354 904543
786232 122658
205466 581527
760337 569690
445666 468853
697311 561616
222850 505295
127515 943446
236227 883940
295271 591147
20778 750143
874724 807914
522853 823877
37952 165852
793513 773890
184145 898198
799127 987233
921757 803130
590849 163746
315581 755016
549400 57199
488954 564827
976784 378808
296983 673610
613271 482401
778247 427657
22888 412226
333394 45234
250573 155262
25789 667238
828958 402923
975986 242082
668708 358307
868760 848043
570645 471410
332350 408207
682416 445663
785280 362844
480592 420746
587394 294993
264495 400089
685314 619721
133418 689183
697611 155089
855510 497080
926687 264697
282135 666310
294089 249942
416872 122114
936459 265133
916630 443290
994410 369967
741597 797701
394705 77355
146217 562921
934597 165601
120145 657625
278825 99134
50759 295992
519613 186530
600179 774004
191369 987456
388878 860462
964089 778280
987375 346243
983755 75513
30421 207264
396181 10795
687067 845681
4739 953254
17318 49079
915657 830429
970397 96986
664655 603977
765415 360459
521991 751289
213227 333379
162128 920066
71491 206430
248483 926010
935124 299266
565446 400856
585526 684738
367935 670932
917038 100016
217422 815725
312093 418837
968762 135522
589014 398079
417181 922296
100293 862425
402445 725239
558009 474136
824903 99096
568820 627884
816802 214213
41184 296236
627505 75472
610145 184902
225012 775551
761304 226070
770552 176521
723689 926860
217105 381819
908747 370525
484570 551986
940972 133671
242978 584955
232787 159832
443856 679367
518660 620679
411943 23952
579469 964819
453167 307037
765248 837477
411612 55541
482961 454805
314247 39840
561956 984041
692920 224240
755162 222372
330773 665936
687588 238058
441221 282735
267821 878124
392445 356599
787778 291849
829728 608593
998112 623046
534513 321417
766953 402181
239003 121095
745512 652669
956579 836695
451027 700420
777314 372605
285636 425113
178024 370643
31862 749928
752433 708527
410396 906815
992633 415293
8229 519344
396389 272306
71354 279562
178713 195180
943550 332512
575804 888691
922970 94571
945966 484437
977126 558361
562642 705164
278324 766257
571323 340278
451328 149755
656994 165623
234717 331884
518027 702593
679765 322678
911352 366132
554131 831490
965489 399470
