295875 578012 470
658484 474096 509
39387 377607 443
244444 392438 441
786050 669774 504
434982 705594 509
49340 785849 509
932968 456040 525
191704 604638 470
765767 919241 525
257771 622077 470
439479 836772 509
656618 233916 509
507910 37720 449
465223 534766 470
504814 527920 470
528432 789204 509
865626 450857 525
147420 900363 525
337450 392789 441
23934 279593 443
26810 355104 443
577574 638388 509
461845 516494 470
819440 6871 509
639264 277312 509
506085 809785 509
42558 552107 470
531057 417506 470
72169 708979 509
969193 219610 525
531663 617598 452
342252 430021 449
974771 463506 525
518215 201442 470
751091 373361 509
385497 270117 441
916828 701541 525
731070 577130 509
708077 365693 509
698780 533734 509
269900 562027 470
507673 559280 470
139400 28070 354
913191 596901 525
371892 230566 443
527452 458823 470
128595 870681 525
281146 954782 525
747221 351545 509
508651 990799 525
65717 789454 509
527213 910888 525
628325 45784 509
313617 659477 509
811138 840336 525
874445 683025 525
877693 608472 525
715517 518474 509
100341 863308 525
567370 307901 470
993945 78494 525
975389 879907 507
396523 940144 525
835639 362525 509
165388 551196 470
809406 462159 509
839640 138953 525
657521 293403 509
771509 825269 468
851928 684892 525
704441 880368 525
67908 817591 509
667427 921343 525
391834 353672 436
153110 95214 375
831930 928633 525
4981 722718 509
973192 467799 525
801917 932792 525
502060 577304 470
999382 504985 525
230620 449299 449
202441 75454 383
322248 449835 449
608588 603031 403
676082 246936 509
593146 254818 470
974786 829347 525
888193 987001 507
485289 164077 449
975021 605657 525
721329 659195 504
925928 992111 507
666861 538502 509
973063 480066 525
15383 418288 449
284972 359525 441
720956 413563 509
664007 729413 504
371382 174457 443
123392 88516 354
226049 411276 449
45499 513653 470
744563 931879 525
284990 974263 525
682674 633873 442
131247 244836 443
547525 22709 470
837920 134135 525
179461 88524 383
127256 474803 449
349635 798690 509
855649 585703 525
989438 725331 525
89353 166975 383
28860 998149 525
445211 569096 470
269142 515401 470
538286 98832 470
52113 721630 509
718992 85192 509
602395 88587 470
724098 930309 525
925423 501953 525
463715 768842 509
406317 637310 509
381313 197857 443
284547 17899 443
564914 852799 525
956854 273692 525
211107 248672 443
493136 491637 426
813955 840913 525
143461 653124 509
171403 675623 509
217154 4203 386
509524 616377 470
165930 282938 443
170479 781855 509
387734 564420 470
997238 616732 525
451789 863097 525
178129 319751 443
290004 997887 525
646596 260175 509
94621 64976 351
983250 872534 507
536651 647961 509
356517 165064 443
346887 644018 509
840112 156361 525
592159 422567 470
741169 693170 504
417220 57122 449
668708 416648 509
475477 933934 525
548174 268724 470
873002 14496 525
657068 785221 504
619280 118229 470
525725 978911 525
814341 160140 509
155042 535264 470
388129 116461 443
49138 772849 509
653834 577995 509
236064 558198 470
994105 957421 458
469771 989597 525
168459 163357 352
977991 901502 507
612282 969192 525
846958 340818 525
441926 176565 449
476184 893141 525
876863 449874 525
863419 224325 525
586309 948265 525
994799 266699 525
393667 693674 509
656577 34636 509
5372 757933 509
504156 960174 525
903604 876660 445
489100 678051 509
133735 729851 509
483094 831446 509
370477 853016 525
527254 69081 470
885611 156894 525
306803 32051 443
944582 984175 458
95903 250705 443
629757 399023 509
957686 715890 525
816269 989542 525
464202 727258 509
210523 713687 509
336482 934643 525
504108 222170 449
561739 36486 470
235784 210167 443
988952 140057 525
951685 136748 525
544632 318735 470
23221 385448 443
890722 802869 525
363432 938643 525
319803 704800 509
716976 735996 424
94851 758689 509
668311 71177 509
94726 422220 449
943381 754136 525
225231 72172 386
55325 388923 443
480172 164918 449
852194 438 525
366678 33046 443
504484 105227 449
372298 404687 436
12923 472286 449
713913 962580 525
575295 397684 470
570642 437392 470
95439 364557 443
742742 348097 509
144344 828721 509
589136 892595 525
253510 430810 449
114448 988444 525
195764 470139 449
92932 710481 509
484711 322353 449
599842 404320 470
678416 284680 509
651961 233583 509
646427 288090 509
987921 91826 525
296717 856206 525
342388 597022 470
623432 656703 509
317050 744674 509
613459 917237 525
309498 495767 449
