595429 625398
503344 675696
44412 717085
94645 98047
395617 585655
478949 155440
481667 939163
885430 357743
368753 966673
375672 584886
590712 213297
731943 215049
156712 314918
18063 60807
623296 394063
960940 993399
306810 730864
644635 557262
217885 164316
899306 701348
981064 981031
536290 817094
771446 661654
435161 300808
570402 969696
770645 812454
101241 435182
714787 523335
46684 578858
206632 342650
45224 121218
495886 784519
600123 963034
992173 53558
137704 691967
476091 231918
748258 350871
512847 184527
216068 546834
516752 761918
655982 830107
859987 55621
897628 274688
137485 422758
664518 251961
964576 218138
432950 993905
177537 862400
8141 440811
775042 115820
485950 903336
403953 950005
606658 508322
416425 753282
27615 447599
571292 371227
37294 164042
544511 984212
414185 133209
863582 735609
365191 20857
650057 283295
311088 836163
730965 129214
25645 442851
410559 773557
94007 247722
121840 991750
535097 52510
351293 315884
748255 733392
355939 79806
285805 743501
498661 997638
10303 551470
719075 195407
378286 506874
758976 368639
227681 480553
69279 142953
790939 408456
86521 402234
790684 771353
925484 258632
197100 749054
659814 318272
69280 538447
167317 98939
501605 760241
450430 202582
136232 236675
656712 605359
2606 860491
858836 116339
34127 337516
860458 412548
69907 785030
189801 367128
457621 30137
144170 458794
522875 780212
461681 567199
881847 511031
989030 351464
421474 331048
489222 586301
568685 997037
824096 902130
845936 333709
756170 641170
735920 124173
201783 459425
252520 30218
575355 382068
52255 415780
13208 127559
274148 253053
981229 794023
379738 416220
397362 771817
436012 699707
32068 781220
278220 190240
414504 277213
996709 196455
679880 978804
847533 675491
873075 31672
452546 584014
192218 13499
478115 763976
149040 370259
832102 766974
136195 540131
178165 614512
174135 198817
768006 261122
516843 344046
865810 751737
77095 851841
345140 921810
667448 385678
28785 195722
130620 109784
797168 440579
47640 806015
138130 511540
516041 290648
827131 311323
989838 120608
282231 922536
134057 406695
800663 722385
178733 502430
389343 879715
275148 710205
864802 287732
633413 143410
67628 954175
279644 799159
687683 165464
447640 594041
651807 625318
744694 305265
993448 646730
772087 150333
905729 840264
528036 475616
93352 269355
195769 51984
818807 781592
832778 59806
292341 692974
189652 411886
241209 547401
503244 537018
495048 329100
452794 272434
603584 111639
602297 868582
126104 588035
401733 618397
91673 140906
417696 985356
526246 824446
718125 21455
369097 645603
756591 472573
602230 78960
284788 776416
947528 236006
493942 521821
915315 48556
4846 607148
740851 372308
447351 236681
878861 269995
579017 533226
897091 276245
782076 856542
234632 619687
579483 989038
394409 607559
112906 858829
570904 447809
601649 859143
945852 792714
647271 761886
102752 774771
486110 820322
789877 370875
197189 187959
928506 660805
423143 668895
13994 876885
678251 54384
648336 652434
501909 621833
477069 653947
801046 61250
439164 865315
919980 39685
824080 967757
939465 947055
952432 488710
342152 380698
446133 550225
200945 904799
652857 776972
823678 611901
775211 800898
27154 463972
540427 657169
298154 962974
492581 6396
37706 253665
133834 657054
456 408533
426509 971537
787857 780991
57470 140613
692489 378558
324820 412532
270604 880660
133132 351682
289761 513765
589168 772646
950764 544614
876051 958815
872665 183972
788475 767746
518407 610622
178919 126952
293481 74788
148202 435793
255346 16915
392167 514146
240876 737634
814409 707776
296878 378366
564828 220490
247026 760938
514834 497939
385698 414474
340217 294772
139745 876901
