122414 174856 383
580850 445922 470
745761 81539 509
636810 845908 525
652482 815809 504
398603 996111 525
911829 504562 525
264651 532976 470
62355 62491 255
773294 650138 504
611669 96314 470
33704 511772 449
75365 33585 340
734986 760669 424
757453 11702 509
71673 761719 509
310598 372721 441
550072 246730 470
441622 105480 449
308850 638014 509
676355 49432 509
262565 185213 443
13372 630526 509
861001 880136 432
269698 752343 509
778838 88994 509
317202 259188 407
760595 875288 525
871082 492752 525
694316 963772 525
77635 319888 443
855869 850528 419
830710 452317 509
329305 335099 353
984612 93933 525
36257 837590 509
620949 171777 470
476143 296962 449
310114 532584 470
372424 312991 441
218924 693093 509
750493 214801 509
454522 119204 449
991016 585126 525
110493 974105 525
913258 967643 507
872449 300879 525
392473 669815 509
460371 267438 449
939837 459109 525
360255 546864 470
764991 995831 525
419713 819174 509
232876 128955 443
495872 585888 470
928047 580346 525
599449 296488 470
146714 28380 375
894446 72358 525
218361 809701 509
642275 853960 525
17023 700628 509
423508 905879 525
65049 797596 509
444917 909635 525
126689 219074 386
608361 979964 525
670004 79299 509
671272 124212 509
661536 423739 509
241491 38753 443
625650 897556 525
339282 999109 525
686867 546807 509
807807 299996 509
920202 942187 507
554131 641551 509
570951 472370 470
642469 185474 509
806360 703729 504
141958 839843 525
431762 47027 449
521201 934038 525
882896 205399 525
439542 97609 449
925330 39945 525
775902 430571 509
53855 358489 443
102547 728012 509
523661 71443 470
609521 28783 470
579100 580773 328
975566 903142 507
411642 345503 449
423630 459556 418
408056 246002 441
95146 289765 443
704283 398819 509
615779 574812 447
666269 788443 504
599861 874937 525
520982 81334 470
139758 229586 386
252962 164322 443
612347 111179 470
811750 438219 509
339451 297111 384
159795 542296 470
47782 654291 509
951652 630828 525
749599 62890 509
901646 262116 525
37457 565245 470
334977 925226 525
162487 32564 383
791736 106526 509
292750 174814 443
319854 7224 443
528880 886913 525
698289 156269 509
801514 355894 509
60330 642201 509
36542 779850 509
83300 155273 375
606525 630987 509
311364 545520 470
776305 575562 509
21122 194945 383
598659 904648 525
410216 536197 470
41249 5771 324
173157 901297 525
357031 253543 441
899593 833914 525
12331 406421 443
240243 980137 525
937800 307415 525
468481 673465 509
790116 227077 509
853671 655764 525
104169 549627 470
738646 439212 509
289784 813596 509
466092 341257 449
454143 706257 509
623253 976679 525
184255 5772 383
603045 250322 470
465627 17008 449
486843 130655 449
893639 458307 525
222062 587818 470
434338 912488 525
689035 520467 509
838373 751055 525
400099 634043 509
679694 382418 509
426588 414965 418
845575 174247 525
27836 718206 509
880287 562901 525
486126 867113 525
738229 47914 509
61262 406538 443
764314 101541 509
699729 429224 509
171736 413469 449
692421 221998 509
890869 611634 525
652929 293761 509
908724 386940 525
205223 521522 470
630899 168983 509
419818 374005 449
717902 964322 525
675596 377358 509
722718 161504 509
496249 962147 525
751747 106309 509
859280 314544 525
855922 535928 525
323095 558852 470
979414 946748 458
210850 738891 509
262910 158799 443
983407 859769 507
368334 292046 441
465185 47791 449
99497 996970 525
69097 163379 383
706894 26397 509
160631 862652 525
573479 645960 509
617204 902911 525
918217 776677 525
556182 222794 470
430488 482842 444
370449 124716 443
53436 250920 443
533762 500536 470
223414 774816 509
247037 694545 509
756486 574087 509
477175 900392 525
955789 563633 525
87819 581347 470
152686 914967 525
959812 441329 525
804682 183406 509
911628 209023 525
674364 563869 509
764638 319226 509
17823 497660 449
166859 571639 470
440831 376408 449
371591 758197 509
720404 350935 509
385325 203333 443
809864 762111 468
302529 690181 509
459512 130494 449
119539 236891 443
755997 430999 509
393047 115765 443
477321 138234 449
815644 76998 509
357356 34112 443
525327 102440 470
930710 350971 525
401652 897054 525
609125 990589 525
